…
Tibbles do less (i.e.they dont change variable names or types, and dont do partial matching) and complain more (e.g.when a variable does not exist). This forces one to confront problems earlier.

Tibbles also have an enhanced print() method which makes them easier to use with large datasets containing complex objects.

To convert a data frame to a tibble, we can use the function as.tibble(df) where df is a data frame.

We will convert the HANES data frame into tibble and use the tibble from now on.

  # Load the tidyverse library
  library(tidyverse)
  # Convert HANES data frame into a tibble and observe it
  HANES_TIB <- as.tibble(HANES)
  HANES_TIB

## # A tibble: 1,112 x 23
##    KEY   GENDER SPAGE AGEGROUP HSQ_1 UCREATININE UALBUMIN    UACR MERCURYU
##    <fct> <fct>  <int> <fct>    <fct>       <int>    <dbl>   <dbl>    <dbl>
##  1 1340 M         29 20-39    Very         105    0.707 0.00673    0.370
##  2 1344 M         28 20-39    Very          53    1     2          0.106
##  3 1344 M         27 20-39    Very         314    8     3          0.487
##  4 1346 M         24 20-39    Exce         105    4     4          2.21 
##  5 1346 M         30 20-39    Exce         163    3     2          0.979
##  6 1352 M         26 20-39    Good          150    2     1          1.48 
##  7 1354 M         31 20-39    Exce          46    2     4          0.106
##  8 1357 M         32 20-39    Very          36    0.707 0.0196     0.238
##  9 1360 M         34 20-39    Exce         177    4     2          2.30 
## 10 1362 M         32 20-39    Good          156    3     2          1.51 
## #  with 1,102 more rows, and 14 more variables: DX_DBTS <fct>, A1C <dbl>,
## #   CADMIUM <dbl>, LEAD <dbl>, MERCURYTOTALBLOOD <dbl>, HDL <int>,
## #   CHOLESTEROLTOTAL <int>, GLUCOSESI <dbl>, CREATININESI <dbl>,
## #   CREATININE <dbl>, TRIGLYCERIDE <int>, GLUCOSE <int>, COTININE <dbl>,
## #   LDLESTIMATE <int>
…
The arrange() function

arrange() works similar to filter function except that instead of selecting rows, it changes their order.

It takes a data frame and a set of column names (or more complicated expressions) to order by.

If we provide more than one column name, each additional column will be used to break ties in the values of preceding columns:

  # Arrange the data frame arranging GENDER and AGE with descending order of the variable UCREATININE
  a <- arrange(HANES, GENDER, SPAGE, desc(UCREATININE))
  atib <- as.tibble(a)
  atib

## # A tibble: 1,112 x 23
##    KEY   GENDER SPAGE AGEGROUP HSQ_1 UCREATININE UALBUMIN    UACR MERCURYU
##    <fct> <fct>  <int> <fct>    <fct>       <int>    <dbl>   <dbl>    <dbl>
##  1 1343 M         20 20-39    Exce         612   26     4.00e+0    6.23 
##  2 5500 M         20 20-39    Very         217   12     6.00e+0    0.166
##  3 2206 M         20 20-39    Very         198   15     8.00e+0    0.318
##  4 3331 M         20 20-39    Good          153    5     3.00e+0    0.653
##  5 4435 M         20 20-39    Very         148    1     1.00e+0    0.717
##  6 1403 M         20 20-39    Very         132    3     2.00e+0    0.106
##  7 4477 M         20 20-39    Exce         131    3     2.00e+0    0.649
##  8 2239 M         21 20-39    Exce         269    1     3.70e-1    0.502
##  9 2239 M         21 20-39    Very         205    0.707 3.45e-3    1.51 
## 10 3287 M         21 20-39    Very         144   25     1.74e+1    0.448
## #  with 1,102 more rows, and 14 more variables: DX_DBTS <fct>, A1C <dbl>,
## #   CADMIUM <dbl>, LEAD <dbl>, MERCURYTOTALBLOOD <dbl>, HDL <int>,
## #   CHOLESTEROLTOTAL <int>, GLUCOSESI <dbl>, CREATININESI <dbl>,
## #   CREATININE <dbl>, TRIGLYCERIDE <int>, GLUCOSE <int>, COTININE <dbl>,
## #   LDLESTIMATE <int>
…
Sort HANES to find pateints with high A1C.

The select() function

The orginal HANES data set has \(704\) variables/columns.

It is common for real world data sets to be large and we may want to quickly zoom into the variables of interest.

The select() function allows us to do that. Here is a code to select only A1C and GLUCOSE variables:

  # Select only the A1C and GLUCOSE variables from the HANES data
  s <- select(HANES, A1C, GLUCOSE)
  as.tibble(s)

## # A tibble: 1,112 x 2
##      A1C GLUCOSE
##    <dbl>   <int>
##  1   5        83
##  2   5.2      86
##  3   4.8      93
##  4   5.1      90
##  5   4.3      92
##  6   5.2      85
##  7   4.8      72
##  8   5.2      87
##  9   4.8      96
## 10   5.2      92
## #  with 1,102 more rows

An useful helper arument is the everything() function that allows keeping all the variables and pushing the variables of interest in the front.

  # Push the A1C and GLUCOSE variables to the front keeping everything
  s <- select(HANES, A1C, GLUCOSE, everything())
  as.tibble(s)

## # A tibble: 1,112 x 23
##      A1C GLUCOSE KEY   GENDER SPAGE AGEGROUP HSQ_1 UCREATININE UALBUMIN
##    <dbl>   <int> <fct> <fct>  <int> <fct>    <fct>       <int>    <dbl>
##  1   5        83 1340 M         29 20-39    Very         105    0.707
##  2   5.2      86 1344 M         28 20-39    Very          53    1    
##  3   4.8      93 1344 M         27 20-39    Very         314    8    
##  4   5.1      90 1346 M         24 20-39    Exce         105    4    
##  5   4.3      92 1346 M         30 20-39    Exce         163    3    
##  6   5.2      85 1352 M         26 20-39    Good          150    2    
##  7   4.8      72 1354 M         31 20-39    Exce          46    2    
##  8   5.2      87 1357 M         32 20-39    Very          36    0.707
##  9   4.8      96 1360 M         34 20-39    Exce         177    4    
## 10   5.2      92 1362 M         32 20-39    Good          156    3    
## #  with 1,102 more rows, and 14 more variables: UACR <dbl>,
## #   MERCURYU <dbl>, DX_DBTS <fct>, CADMIUM <dbl>, LEAD <dbl>,
## #   MERCURYTOTALBLOOD <dbl>, HDL <int>, CHOLESTEROLTOTAL <int>,
## #   GLUCOSESI <dbl>, CREATININESI <dbl>, CREATININE <dbl>,
## #   TRIGLYCERIDE <int>, COTININE <dbl>, LDLESTIMATE <int>

The mutate() function

We can add new columns to the data set using the mutate() function.

For example, this code makes a new variable that is the sum of HDL and LDL estimate, stores it in a variable H_L to find the ratio between cholesterol and this new variable, H_L:

   # Select only the variables LDLESTIMATE,HDL,CHOLESTEROLTOTAL,TRIGLYCERIDE
   HANES_sub <- select(HANES,LDLESTIMATE,HDL,CHOLESTEROLTOTAL,TRIGLYCERIDE)
   # Add a new variable H_L that is a sum of HDL and LDL
   m <- mutate(HANES_sub, H_L = HDL+LDLESTIMATE, ratio=CHOLESTEROLTOTAL/H_L)
   as.tibble(m)

## # A tibble: 1,112 x 6
##    LDLESTIMATE   HDL CHOLESTEROLTOTAL TRIGLYCERIDE   H_L ratio
##          <int> <int>            <int>        <int> <int> <dbl>
##  1         111    42              184          156   153  1.20
##  2          97    51              157           43   148  1.06
##  3          81    42              145          108   123  1.18
##  4         132    61              206           65   193  1.07
##  5          58    52              120           51   110  1.09
##  6          99    50              155           29   149  1.04
##  7          93    57              156           31   150  1.04
##  8         135    56              235          220   191  1.23
##  9          98    42              156           82   140  1.11
## 10          69    44              120           35   113  1.06
## #  with 1,102 more rows

The transmute() function retains only the created variables.

   # Select only the variables LDLESTIMATE,HDL,CHOLESTEROLTOTAL,TRIGLYCERIDE
   HANES_sub <- select(HANES,LDLESTIMATE,HDL,CHOLESTEROLTOTAL,TRIGLYCERIDE)
   # Add a new variable H_L that is a sum of HDL and LDL
   m <- transmute(HANES_sub, H_L = HDL+LDLESTIMATE, ratio=CHOLESTEROLTOTAL/H_L)
   as.tibble(m)

## # A tibble: 1,112 x 2
##      H_L ratio
##    <int> <dbl>
##  1   153  1.20
##  2   148  1.06
##  3   123  1.18
##  4   193  1.07
##  5   110  1.09
##  6   149  1.04
##  7   150  1.04
##  8   191  1.23
##  9   140  1.11
## 10   113  1.06
## #  with 1,102 more rows
…
Without removing NA

  # Group by AGE and GENDER and
  HANES_with_NA %>% 
  group_by(SPAGE, GENDER) %>% 
  # summarize the mean of cholesterol for each group without removing NA
  summarise(mean = mean(CHOLESTEROLTOTAL))

## # A tibble: 143 x 3
## # Groups:   SPAGE [75]
##    SPAGE GENDER  mean
##    <int>  <int> <dbl>
##  1    20      1   NA 
##  2    20      2   NA 
##  3    21      1   NA 
##  4    21      2   NA 
##  5    22      1  153.
##  6    22      2   NA 
##  7    23      1   NA 
##  8    23      2   NA 
##  9    24      1   NA 
## 10    24      2   NA 
## #  with 133 more rows

Removing NA

  # Group by AGE and GENDER and 
  HANES_with_NA %>% 
  group_by(SPAGE, GENDER) %>% 
  # summarize the mean of cholesterol for each group by removing NA
  summarise(mean = mean(CHOLESTEROLTOTAL, na.rm=TRUE))

## # A tibble: 143 x 3
## # Groups:   SPAGE [75]
##    SPAGE GENDER  mean
##    <int>  <int> <dbl>
##  1    20      1  165.
##  2    20      2  157.
##  3    21      1  152.
##  4    21      2  154.
##  5    22      1  153.
##  6    22      2  167.
##  7    23      1  166.
##  8    23      2  170.
##  9    24      1  169.
## 10    24      2  174.
## #  with 133 more rows

We can also filter through the missing values first -

  # Filter the data and get no NA values 
  HANES_with_NA %>% filter(!is.na(CHOLESTEROLTOTAL)) %>%
  # group by AGE and GENDER 
  group_by(SPAGE, GENDER) %>% 
  # and find the mean of cholesterol for each group
  summarise(mean = mean(CHOLESTEROLTOTAL))

## # A tibble: 140 x 3
## # Groups:   SPAGE [75]
##    SPAGE GENDER  mean
##    <int>  <int> <dbl>
##  1    20      1  165.
##  2    20      2  157.
##  3    21      1  152.
##  4    21      2  154.
##  5    22      1  153.
##  6    22      2  167.
##  7    23      1  166.
##  8    23      2  170.
##  9    24      1  169.
## 10    24      2  174.
## #  with 130 more rows
…
Omit age groups (SPAGE) with low number of observations (say, \(30\)) and standardise A1C to compute per group metric.

  # Group by SPAGE and filter groups that contain more than 30 individuals
  HANES %>% group_by(SPAGE) %>% filter(n() > 30) %>% 

  # Filter for all records with A1C variable > 0 to avoid NaNs,
  filter(A1C > 0) %>%
  # standardise A1C dividing by the total sum of A1C in the group
  mutate(standardised_A1C = A1C / sum(A1C)) %>%
  # and seelct only A1C and standardised A1C
  select(A1C, standardised_A1C)

## # A tibble: 226 x 3
## # Groups:   SPAGE [7]
##    SPAGE   A1C standardised_A1C
##    <int> <dbl>            <dbl>
##  1    29   5             0.0320
##  2    28   5.2           0.0312
##  3    27   4.8           0.0301
##  4    24   5.1           0.0324
##  5    30   4.3           0.0243
##  6    30   5.3           0.0299
##  7    28   4.7           0.0282
##  8    30   4.7           0.0265
##  9    23   4.9           0.0291
## 10    30   5.2           0.0293
## #  with 216 more rows
…
