…
We will consider people without diabetes as control group, that represents the (sample) random variable \(Y\) and

people with diabetes as disease group - that represents the (sample) random variable \(X\).

  # Extract only the A1C variable for the control group 
  control <- filter(HANES, DX_DBTS == "NO DIAB") %>% select(A1C)
  # and the disease group
  disease <- filter(HANES, DX_DBTS == "DIAB") %>% select(A1C)
  as.tibble(control)
  as.tibble(disease)

## Warning: `as.tibble()` is deprecated, use `as_tibble()` (but mind the new semantics).
## This warning is displayed once per session.

## # A tibble: 977 x 1
##      A1C
##    <dbl>
##  1   5  
##  2   5.2
##  3   4.8
##  4   5.1
##  5   4.3
##  6   5.2
##  7   4.8
##  8   5.2
##  9   4.8
## 10   5.2
## #  with 967 more rows

## # A tibble: 104 x 1
##      A1C
##    <dbl>
##  1   8.3
##  2   5.3
##  3   8.7
##  4   5.1
##  5  10.3
##  6   6.1
##  7  10.3
##  8   7.7
##  9   6.7
## 10   7.5
## #  with 94 more rows
…
## Warning: Factor `marital_status` contains implicit NA, consider using
## `forcats::fct_explicit_na`

## Warning: Factor `marital_status` contains implicit NA, consider using
## `forcats::fct_explicit_na`

## Warning: Factor `marital_status` contains implicit NA, consider using
## `forcats::fct_explicit_na`

## # A tibble: 34 x 3
## # Groups:   insurance, marital_status [34]
##    insurance  marital_status     n
##    <fct>      <fct>          <int>
##  1 Government DIVORCED          13
##  2 Government MARRIED           33
##  3 Government SEPARATED          3
##  4 Government SINGLE            93
##  5 Government WIDOWED            8
##  6 Government <NA>              31
##  7 Medicaid   DIVORCED          38
##  8 Medicaid   MARRIED          100
##  9 Medicaid   SEPARATED         12
## 10 Medicaid   SINGLE           309
## #  with 24 more rows
…
    group_by(diagnosis, ethnicity) %>% count() %>% arrange(desc(n))
  # Display the table
  diagnosis_ethnicity
  # Select only the required ethinicity
  MIMIC3_ADM %>% 
    filter((ethnicity == "BLACK/AFRICAN AMERICAN" | ethnicity == "WHITE") & 
             diagnosis == "DIABETIC KETOACIDOSIS") %>% 
              group_by(ethnicity,diagnosis) %>% count()
  # Find the count of the population
  black_pop <- MIMIC3_ADM %>% filter(ethnicity == "BLACK/AFRICAN AMERICAN") %>% count()
  white_pop <- MIMIC3_ADM %>% filter(ethnicity == "WHITE") %>% count()
  black_pop$n
  white_pop$n

## # A tibble: 2,861 x 3
## # Groups:   diagnosis, ethnicity [2,861]
##    diagnosis                                       ethnicity              n
##    <fct>                                           <fct>              <int>
##  1 NEWBORN                                         WHITE                424
##  2 PNEUMONIA                                       WHITE                120
##  3 SEPSIS                                          WHITE                 82
##  4 NEWBORN                                         BLACK/AFRICAN AME    71
##  5 NEWBORN                                         ASIAN                 67
##  6 "CORONARY ARTERY DISEASE\\CORONARY ARTERY BYPA WHITE                 54
##  7 INTRACRANIAL HEMORRHAGE                         WHITE                 53
##  8 CORONARY ARTERY DISEASE                         WHITE                 51
##  9 GASTROINTESTINAL BLEED                          WHITE                 51
## 10 ALTERED MENTAL STATUS                           WHITE                 49
## #  with 2,851 more rows
…
We saw that there is a good correlation between LDLESTIMATE and CHOLESTEROLTOTAL suggesting there is possibly a linear relationship between them.

Assuming there is a linear relationship, is it possible to predict the values of CHOLESTEROLTOTAL when we have the values for LDLESTIMATE?

We will try to do this in what follows.

First we will get these two variables from the data set.

  # Get the LDLESTIMATE and CHOLESTEROLTOTAL variables from the HANES data set
  mydata <- HANES %>% select(LDLESTIMATE,CHOLESTEROLTOTAL)
  # Take 30 random points (subsample) for illustration purposes
  mysample <- mydata[sample(1:nrow(mydata), 30, replace=FALSE),]
  as.tibble(mysample)

## # A tibble: 30 x 2
##    LDLESTIMATE CHOLESTEROLTOTAL
##          <int>            <int>
##  1         246              335
##  2         194              263
##  3          68              143
##  4          85              162
##  5          53              132
##  6         174              248
##  7         120              188
##  8          88              156
##  9         133              238
## 10         196              258
## #  with 20 more rows
…
This is a good thing, because, one of the underlying assumptions in linear regression is that the relationship between the response and predictor variables is linear and additive.

Now lets do a box plot to determine if there are any major outliers.

  # We first gather the two variables to make a box plot in one plot
  LDL_CHOL_gather <- mysample %>% 
    gather(`LDLESTIMATE`, `CHOLESTEROLTOTAL`, key = "Variables", value = "Values")
  # View as a tibble
  as.tibble(LDL_CHOL_gather)
  # Make a box plot
  ggplot(LDL_CHOL_gather, aes(Variables, Values)) + 
    geom_boxplot(fill='cyan', color="darkred", alpha = 0.5) 

## # A tibble: 60 x 2
##    Variables   Values
##    <chr>        <int>
##  1 LDLESTIMATE    246
##  2 LDLESTIMATE    194
##  3 LDLESTIMATE     68
##  4 LDLESTIMATE     85
##  5 LDLESTIMATE     53
##  6 LDLESTIMATE    174
##  7 LDLESTIMATE    120
##  8 LDLESTIMATE     88
##  9 LDLESTIMATE    133
## 10 LDLESTIMATE    196
## #  with 50 more rows
…
