…
A note on tibbles

We already saw tibbles and how to convert data frames into tibbles (using as.tibble() or as_data_frame()).

Tibbles have a refined print method that by default shows only the first 10 rows, and all the columns that fit on screen.

We can change this default setting of the number of rows presented by the following:

# You can set the print options for the 
# number of lines to be printed
options(tibble.print_min = 7)
as.tibble(HANES)

## # A tibble: 1,112 x 23
##   KEY   GENDER SPAGE AGEGROUP HSQ_1 UCREATININE UALBUMIN    UACR MERCURYU
##   <fct> <fct>  <int> <fct>    <fct>       <int>    <dbl>   <dbl>    <dbl>
## 1 1340 M         29 20-39    Very         105    0.707 0.00673    0.370
## 2 1344 M         28 20-39    Very          53    1     2          0.106
## 3 1344 M         27 20-39    Very         314    8     3          0.487
## 4 1346 M         24 20-39    Exce         105    4     4          2.21 
## 5 1346 M         30 20-39    Exce         163    3     2          0.979
## 6 1352 M         26 20-39    Good          150    2     1          1.48 
## 7 1354 M         31 20-39    Exce          46    2     4          0.106
## #  with 1,105 more rows, and 14 more variables: DX_DBTS <fct>, A1C <dbl>,
## #   CADMIUM <dbl>, LEAD <dbl>, MERCURYTOTALBLOOD <dbl>, HDL <int>,
## #   CHOLESTEROLTOTAL <int>, GLUCOSESI <dbl>, CREATININESI <dbl>,
## #   CREATININE <dbl>, TRIGLYCERIDE <int>, GLUCOSE <int>, COTININE <dbl>,
## #   LDLESTIMATE <int>
…
## [1] "2150-06-29 15:00:00 UTC" "2142-04-08 14:46:00 UTC"
## [3] "2196-02-04 17:48:00 UTC" "2196-04-17 13:42:00 UTC"
## [5] "2162-03-10 13:15:00 UTC" "2167-07-30 15:24:00 UTC"

Sometimes we may just want to work with the dates given the variable in date-time format. We can use as_date() function to extract just the date.

  # Load the lubridate library
  library(lubridate)
  # Since discharge time has both date and time attributes we use as_date() to extract the date
  MIMIC3_ADM$dischtime <- as_date(MIMIC3_ADM$dischtime)
  # We can then select only the variables of interest
  MIMIC3_adm_dis <- select(MIMIC3_ADM, hadm_id, admittime, dischtime)
  as.tibble(MIMIC3_adm_dis)

## # A tibble: 5,770 x 3
##   hadm_id admittime  dischtime 
##     <int> <date>     <date>    
## 1  110641 2150-06-24 2150-06-29
## 2  158569 2142-04-01 2142-04-08
## 3  120969 2196-02-02 2196-02-04
## 4  166401 2196-04-14 2196-04-17
## 5  116630 2162-03-02 2162-03-10
## 6  112077 2167-07-25 2167-07-30
## 7  190243 2146-04-06 2146-04-10
## #  with 5,763 more rows
…
periods, which represent human units like weeks and months.

intervals, which represent a starting and ending point.

In R, when we subtract two dates, we get a difftime object:

  # Load the lubridate library
  library(lubridate)
  # Subtract discharge time minus admission time
  MIMIC3_adm_dis <- MIMIC3_adm_dis %>% 
    mutate(time_spent = ymd(MIMIC3_adm_dis$dischtime) - ymd(MIMIC3_adm_dis$admittime))
  # Display as tibble
  as.tibble(MIMIC3_adm_dis)

## # A tibble: 5,770 x 4
##   hadm_id admittime  dischtime  time_spent
##     <int> <date>     <date>     <drtn>    
## 1  110641 2150-06-24 2150-06-29 5 days    
## 2  158569 2142-04-01 2142-04-08 7 days    
## 3  120969 2196-02-02 2196-02-04 2 days    
## 4  166401 2196-04-14 2196-04-17 3 days    
## 5  116630 2162-03-02 2162-03-10 8 days    
## 6  112077 2167-07-25 2167-07-30 5 days    
## 7  190243 2146-04-06 2146-04-10 4 days    
## #  with 5,763 more rows
…
Classwork/Homework: How many days of staying" is the most frequent? (or what is the mode of the time_spent distribution?)

Time difference can be little painful to work with when we are interested in durations.

The library lubridate provides an alternative which always uses seconds: the duration.

We can convert our variable into duration by using the function as.duration().

  # Convert the time spent as duration (in seconds)
  MIMIC3_adm_dis <- MIMIC3_adm_dis %>%
                    mutate(time_spent_in_seconds = as.duration(time_spent))
  as.tibble(MIMIC3_adm_dis)

## # A tibble: 5,770 x 5
##   hadm_id admittime  dischtime  time_spent time_spent_in_seconds
##     <int> <date>     <date>     <drtn>     <Duration>           
## 1  110641 2150-06-24 2150-06-29 5 days     432000s (~5 days)    
## 2  158569 2142-04-01 2142-04-08 7 days     604800s (~1 weeks)   
## 3  120969 2196-02-02 2196-02-04 2 days     172800s (~2 days)    
## 4  166401 2196-04-14 2196-04-17 3 days     259200s (~3 days)    
## 5  116630 2162-03-02 2162-03-10 8 days     691200s (~1.14 weeks)
## 6  112077 2167-07-25 2167-07-30 5 days     432000s (~5 days)    
## 7  190243 2146-04-06 2146-04-10 4 days     345600s (~4 days)    
## #  with 5,763 more rows
…
You can add and multiply periods and add them to dates. Thus we can subtract a 200 year time peroid from our admission and discharge times:

  # Makes times compatible with our times subtracting 200 years
  MIMIC3_adm_dis <- MIMIC3_adm_dis %>%
                    mutate(
                        admission_time_minus_200 = ymd(admittime) - years(200),
                        dischtime_time_minus_200 = ymd(dischtime) - years(200)
                      ) %>% 
                    select(admission_time_minus_200, dischtime_time_minus_200, everything())
  as.tibble(MIMIC3_adm_dis)

## # A tibble: 5,770 x 7
##   admission_time_ dischtime_time_ hadm_id admittime  dischtime 
##   <date>           <date>             <int> <date>     <date>    
## 1 1950-06-24       1950-06-29        110641 2150-06-24 2150-06-29
## 2 1942-04-01       1942-04-08        158569 2142-04-01 2142-04-08
## 3 1996-02-02       1996-02-04        120969 2196-02-02 2196-02-04
## 4 1996-04-14       1996-04-17        166401 2196-04-14 2196-04-17
## 5 1962-03-02       1962-03-10        116630 2162-03-02 2162-03-10
## 6 1967-07-25       1967-07-30        112077 2167-07-25 2167-07-30
## 7 1946-04-06       1946-04-10        190243 2146-04-06 2146-04-10
## #  with 5,763 more rows, and 2 more variables: time_spent <drtn>,
## #   time_spent_in_seconds <Duration>
…
A Period prints elapsed time as integers in the form of years, months, weeks, days and so on. Notice this Period is 1 day long. While only 23 hours have technically elapsed since the start date, according to our clock one day has elapsed.

Classwork/Homework: Read section 16.5 Date-time components in the book R for Data Science.

Tidying data

Same kind of data can be present in multiple columns that may denote a single variable.

For example, consider MIMIC3 admissions table. There are two variables - edregtime and edouttime (emergency department registration time and emergency department out time, respectively) that represents one variable: time stamp in emergency, a larger class of variable.

  # Select subject_id, hadm_id, edregtime and edouttime variables
  MIMIC3_ADM_tibble <- MIMIC3_ADM %>% select(subject_id, hadm_id, edregtime, edouttime) %>% na.omit()
  as.tibble(MIMIC3_ADM_tibble)

## # A tibble: 3,065 x 4
##   subject_id hadm_id edregtime           edouttime          
##        <int>   <int> <chr>               <chr>              
## 1         84  166401 2196-04-13 22:23:00 2196-04-14 04:31:00
## 2         85  112077 2167-07-25 16:37:00 2167-07-25 20:46:00
## 3         88  123010 2111-08-29 01:44:00 2111-08-29 02:28:00
## 4         91  121205 2177-04-22 21:02:00 2177-04-23 04:03:00
## 5         94  183686 2176-02-25 10:35:00 2176-02-25 18:14:00
## 6         94  140037 2176-09-02 09:54:00 2176-09-02 17:56:00
## 7         95  160891 2157-12-25 12:24:00 2157-12-25 16:56:00
## #  with 3,058 more rows
…
# Gather all stocks data under one column:'price' and an added new factor:'stock' 
stocks %>% gather(stock, price, -time) %>% mutate(stock = factor(stock)) %>% 
  print() -> meltedStocks

## # A tibble: 30 x 3
##   time       stock  price
##   <date>     <fct>  <dbl>
## 1 2009-01-01 X      0.255
## 2 2009-01-02 X      1.13 
## 3 2009-01-03 X      1.34 
## 4 2009-01-04 X     -1.12 
## 5 2009-01-05 X     -0.921
## 6 2009-01-06 X     -1.28 
## 7 2009-01-07 X      1.21 
## #  with 23 more rows
…
TRANSFER FROM SKILLED NUR

TRSF WITHIN THIS FACILITY

HMO REFERRAL/SICK

PHYS REFERRAL/NORMAL DELI

  # Separate admission_location information
  MIMIC3_ADM_LOC_SEP <- MIMIC3_ADM %>% select(admission_location) %>% 
    separate(admission_location, into = c("Info1", "Info2"), sep = "/", convert = FALSE)
  as.tibble(MIMIC3_ADM_LOC_SEP)

## # A tibble: 5,770 x 2
##   Info1                Info2      
##   <chr>                <chr>      
## 1 PHYS REFERRAL        NORMAL DELI
## 2 TRANSFER FROM HOSP   EXTRAM     
## 3 PHYS REFERRAL        NORMAL DELI
## 4 EMERGENCY ROOM ADMIT <NA>       
## 5 CLINIC REFERRAL      PREMATURE  
## 6 CLINIC REFERRAL      PREMATURE  
## 7 PHYS REFERRAL        NORMAL DELI
## #  with 5,763 more rows

By default seperate() would coerce into charector vectors even if we seperate numerical variables. To retain numerical type, we have to set convert = TRUE argument.

unite() is the inverse of separate(): it combines multiple columns into a single column.

For example, in the above data set we can unite hospital admission id hadm_id and the admission type admission_type to tie a reason why the patient got admitted. By default the unite will use underscore.

This can be overridden by using a seperator argument. This is done as follows:

  # Unite hadm_id and admission_type
  MIMIC3_ADM_LOC_UNITE <- MIMIC3_ADM %>% select(subject_id, hadm_id, admission_type) %>% 
    unite(reason, hadm_id, admission_type, sep=":")
  as.tibble(MIMIC3_ADM_LOC_UNITE)

## # A tibble: 5,770 x 2
##   subject_id reason          
##        <int> <chr>           
## 1         82 110641:NEWBORN  
## 2         83 158569:URGENT   
## 3         84 120969:ELECTIVE 
## 4         84 166401:EMERGENCY
## 5         85 116630:EMERGENCY
## 6         85 112077:EMERGENCY
## 7         86 190243:ELECTIVE 
## #  with 5,763 more rows
…
Case study: TB data from WHO

The following case study illustrates the typical process involved in tidying up real world data.

The data comes from the 2014 World Health Organization Global Tuberculosis Report, which can be downloaded from WHO TB Data.

The data is a part of tidyverse package, so you dont have to download it.

Just querying the data results as follows:

  # Query WHO TB data
  who

## # A tibble: 7,240 x 60
##   country iso2  iso3   year new_sp_m014 new_sp_m1524 new_sp_m2534
##   <chr>   <chr> <chr> <int>       <int>        <int>        <int>
## 1 Afghan AF    AFG    1980          NA           NA           NA
## 2 Afghan AF    AFG    1981          NA           NA           NA
## 3 Afghan AF    AFG    1982          NA           NA           NA
## 4 Afghan AF    AFG    1983          NA           NA           NA
## 5 Afghan AF    AFG    1984          NA           NA           NA
## 6 Afghan AF    AFG    1985          NA           NA           NA
## 7 Afghan AF    AFG    1986          NA           NA           NA
## #  with 7,233 more rows, and 53 more variables: new_sp_m3544 <int>,
## #   new_sp_m4554 <int>, new_sp_m5564 <int>, new_sp_m65 <int>,
## #   new_sp_f014 <int>, new_sp_f1524 <int>, new_sp_f2534 <int>,
## #   new_sp_f3544 <int>, new_sp_f4554 <int>, new_sp_f5564 <int>,
## #   new_sp_f65 <int>, new_sn_m014 <int>, new_sn_m1524 <int>,
## #   new_sn_m2534 <int>, new_sn_m3544 <int>, new_sn_m4554 <int>,
## #   new_sn_m5564 <int>, new_sn_m65 <int>, new_sn_f014 <int>,
## #   new_sn_f1524 <int>, new_sn_f2534 <int>, new_sn_f3544 <int>,
## #   new_sn_f4554 <int>, new_sn_f5564 <int>, new_sn_f65 <int>,
…
  # Verify if hadm_id is a primary key
  MIMIC3_ADM %>% 
    count(hadm_id) %>%
    filter(n > 1)

## # A tibble: 0 x 2
## #  with 2 variables: hadm_id <int>, n <int>

  # Verify if subject_id is a primary key
  is_subject_id_key <- MIMIC3_ADM %>% 
                        count(subject_id) %>%
                        filter(n > 1)
  as.tibble(is_subject_id_key)

## # A tibble: 729 x 2
##   subject_id     n
##        <int> <int>
## 1         84     2
## 2         85     2
## 3         94     2
## 4        103     2
## 5        105     2
## 6        107     3
## 7        109     8
## #  with 722 more rows
…
The following code computes the inner join of admissionas and input events cv table:

  # Inner join of admissions table and input events (cv) table using the key "hadm_id"
  MIMIC_ADM_INE_inner_join <- MIMIC3_ADM %>% 
                                inner_join(MIMIC3_INE, by = "hadm_id")
                        
  as.tibble(MIMIC_ADM_INE_inner_join)

## # A tibble: 1,805 x 40
##   row_id.x subject_id.x hadm_id admittime  dischtime  deathtime
##      <int>        <int>   <int> <date>     <date>     <chr>    
## 1       93           91  121205 2177-04-23 2177-05-10 2177-05-
## 2       94           92  142807 2122-12-13 2123-03-04 <NA>     
## 3       94           92  142807 2122-12-13 2123-03-04 <NA>     
## 4       94           92  142807 2122-12-13 2123-03-04 <NA>     
## 5       94           92  142807 2122-12-13 2123-03-04 <NA>     
## 6       94           92  142807 2122-12-13 2123-03-04 <NA>     
## 7       94           92  142807 2122-12-13 2123-03-04 <NA>     
## #  with 1,798 more rows, and 34 more variables: admission_type <chr>,
## #   admission_location <chr>, discharge_location <chr>, insurance <chr>,
## #   language <chr>, religion <chr>, marital_status <chr>, ethnicity <chr>,
## #   edregtime <chr>, edouttime <chr>, diagnosis <chr>,
## #   hospital_expire_flag <int>, has_chartevents_data <int>,
## #   row_id.y <int>, subject_id.y <int>, icustay_id <int>, charttime <fct>,
## #   itemid <int>, amount <dbl>, amountuom <fct>, rate <dbl>,
## #   rateuom <fct>, storetime <fct>, cgid <int>, orderid <int>,
## #   linkorderid <int>, stopped <fct>, newbottle <int>,
…
Left join admissions and input events table:

  # Left join admissions table and input events (cv) table using the key "hadm_id"
  MIMIC_ADM_INE_left_join <- MIMIC3_ADM %>% 
                                left_join(MIMIC3_INE, by = "hadm_id")
                        
  as.tibble(MIMIC_ADM_INE_left_join)

## # A tibble: 7,179 x 40
##   row_id.x subject_id.x hadm_id admittime  dischtime  deathtime
##      <int>        <int>   <int> <date>     <date>     <chr>    
## 1       83           82  110641 2150-06-24 2150-06-29 <NA>     
## 2       84           83  158569 2142-04-01 2142-04-08 <NA>     
## 3       85           84  120969 2196-02-02 2196-02-04 <NA>     
## 4       86           84  166401 2196-04-14 2196-04-17 2196-04-
## 5       87           85  116630 2162-03-02 2162-03-10 <NA>     
## 6       88           85  112077 2167-07-25 2167-07-30 <NA>     
## 7       89           86  190243 2146-04-06 2146-04-10 <NA>     
## #  with 7,172 more rows, and 34 more variables: admission_type <chr>,
## #   admission_location <chr>, discharge_location <chr>, insurance <chr>,
## #   language <chr>, religion <chr>, marital_status <chr>, ethnicity <chr>,
## #   edregtime <chr>, edouttime <chr>, diagnosis <chr>,
## #   hospital_expire_flag <int>, has_chartevents_data <int>,
## #   row_id.y <int>, subject_id.y <int>, icustay_id <int>, charttime <fct>,
## #   itemid <int>, amount <dbl>, amountuom <fct>, rate <dbl>,
## #   rateuom <fct>, storetime <fct>, cgid <int>, orderid <int>,
## #   linkorderid <int>, stopped <fct>, newbottle <int>,
…
Thus, in our tables:

  # Semi join admissions table and input events (cv) table using the key "hadm_id"
  MIMIC_ADM_INE_semi_join <- MIMIC3_ADM %>% 
                                semi_join(MIMIC3_INE, by = "hadm_id")
                        
  as.tibble(MIMIC_ADM_INE_semi_join)

## # A tibble: 396 x 19
##   row_id subject_id hadm_id admittime  dischtime  deathtime admission_type
##    <int>      <int>   <int> <date>     <date>     <chr>     <chr>         
## 1     93         91  121205 2177-04-23 2177-05-10 2177-05- EMERGENCY     
## 2     94         92  142807 2122-12-13 2123-03-04 <NA>      NEWBORN       
## 3     95         93  160481 2128-03-17 2128-06-17 <NA>      NEWBORN       
## 4     96         94  183686 2176-02-25 2176-02-29 <NA>      EMERGENCY     
## 5     99         96  170324 2156-03-31 2156-04-29 <NA>      EMERGENCY     
## 6    104        101  175533 2196-09-26 2196-10-12 2196-10- EMERGENCY     
## 7    548        427  101274 2170-03-26 2170-04-01 <NA>      EMERGENCY     
## #  with 389 more rows, and 12 more variables: admission_location <chr>,
## #   discharge_location <chr>, insurance <chr>, language <chr>,
## #   religion <chr>, marital_status <chr>, ethnicity <chr>,
## #   edregtime <chr>, edouttime <chr>, diagnosis <chr>,
## #   hospital_expire_flag <int>, has_chartevents_data <int>
…
In our data tables, this would pull out all the entries in admissions table where hospital admissions id (hadm_id) is not present in the input events (cv) table.

  # Anti join admissions table and input events (cv) table using the key "hadm_id"
  MIMIC_ADM_INE_anti_join <- MIMIC3_ADM %>% 
                                anti_join(MIMIC3_INE, by = "hadm_id")
                        
  as.tibble(MIMIC_ADM_INE_anti_join)

## # A tibble: 5,374 x 19
##   row_id subject_id hadm_id admittime  dischtime  deathtime admission_type
##    <int>      <int>   <int> <date>     <date>     <chr>     <chr>         
## 1     83         82  110641 2150-06-24 2150-06-29 <NA>      NEWBORN       
## 2     84         83  158569 2142-04-01 2142-04-08 <NA>      URGENT        
## 3     85         84  120969 2196-02-02 2196-02-04 <NA>      ELECTIVE      
## 4     86         84  166401 2196-04-14 2196-04-17 2196-04- EMERGENCY     
## 5     87         85  116630 2162-03-02 2162-03-10 <NA>      EMERGENCY     
## 6     88         85  112077 2167-07-25 2167-07-30 <NA>      EMERGENCY     
## 7     89         86  190243 2146-04-06 2146-04-10 <NA>      ELECTIVE      
## #  with 5,367 more rows, and 12 more variables: admission_location <chr>,
## #   discharge_location <chr>, insurance <chr>, language <chr>,
## #   religion <chr>, marital_status <chr>, ethnicity <chr>,
## #   edregtime <chr>, edouttime <chr>, diagnosis <chr>,
## #   hospital_expire_flag <int>, has_chartevents_data <int>
…
